<?xml version="1.0" encoding="UTF-8" standalone="no"?>
<!-- Created with Inkscape (http://www.inkscape.org/) -->

<svg
   xmlns:dc="http://purl.org/dc/elements/1.1/"
   xmlns:cc="http://creativecommons.org/ns#"
   xmlns:rdf="http://www.w3.org/1999/02/22-rdf-syntax-ns#"
   xmlns:svg="http://www.w3.org/2000/svg"
   xmlns="http://www.w3.org/2000/svg"
   xmlns:sodipodi="http://sodipodi.sourceforge.net/DTD/sodipodi-0.dtd"
   xmlns:inkscape="http://www.inkscape.org/namespaces/inkscape"
   width="234.06447"
   height="49.455875"
   viewBox="0 0 61.929556 13.085201"
   version="1.1"
   id="svg8"
   inkscape:version="0.92.3 (2405546, 2018-03-11)"
   sodipodi:docname="fanatics.svg">
  <defs
     id="defs2" />
  <sodipodi:namedview
     id="base"
     pagecolor="#00ffff"
     bordercolor="#666666"
     borderopacity="1.0"
     inkscape:pageopacity="0"
     inkscape:pageshadow="2"
     inkscape:zoom="0.7"
     inkscape:cx="390.26187"
     inkscape:cy="-18.032106"
     inkscape:document-units="px"
     inkscape:current-layer="layer1"
     showgrid="false"
     units="px"
     fit-margin-left="0.5"
     fit-margin-top="0.5"
     fit-margin-right="0.5"
     fit-margin-bottom="0.5"
     inkscape:window-width="1920"
     inkscape:window-height="1001"
     inkscape:window-x="-9"
     inkscape:window-y="-9"
     inkscape:window-maximized="1" />
  <metadata
     id="metadata5">
    <rdf:RDF>
      <cc:Work
         rdf:about="">
        <dc:format>image/svg+xml</dc:format>
        <dc:type
           rdf:resource="http://purl.org/dc/dcmitype/StillImage" />
        <dc:title></dc:title>
      </cc:Work>
    </rdf:RDF>
  </metadata>
  <g
     inkscape:label="Layer 1"
     inkscape:groupmode="layer"
     id="layer1"
     transform="translate(-32.220578,-45.496116)">
    <g
       id="g663"
       transform="matrix(0.53065681,0,0,0.53065681,-34.55816,10.584298)">
      <g
         transform="matrix(0.26458333,0,0,0.26458333,125.8793,65.828275)"
         id="g324">
	<path
   id="path316"
   d="m 237.2,44.4 c 10.6,0 17.8,8.2 17.8,20.4 v 22.7 c 0,0.3 -0.3,0.6 -0.6,0.6 H 244 c -0.3,0 -0.6,-0.3 -0.6,-0.6 V 64.9 c 0,-4.7 -2.3,-9.8 -8.8,-9.8 h -0.2 c -4.9,0.1 -9.1,4.5 -9.1,9.5 v 22.9 c 0,0.3 -0.3,0.6 -0.6,0.6 h -10.3 c -0.3,0 -0.6,-0.3 -0.6,-0.6 v -42 c 0,-0.3 0.3,-0.6 0.6,-0.6 h 10 c 0.3,0 0.6,0.3 0.6,0.6 v 3.7 c 3.8,-3.3 7.7,-4.8 12.2,-4.8 m 158.5,36.1 c -0.2,0.2 -0.1,0.6 0.1,0.8 6.2,6.2 12.9,7 18.7,7 8.2,0 14.3,-3.1 16.9,-8.6 0.8,-1.7 1.2,-3.5 1.2,-5.4 0,-11.1 -9.6,-13.1 -17.9,-13.6 -6.6,-0.4 -6.6,-2.7 -6.6,-3.5 0,-2.8 4.5,-3.1 6.4,-3.1 3.7,0 6.5,0.9 8.8,2.9 0.2,0.2 0.6,0.2 0.8,-0.1 l 5.9,-6.8 c 0.2,-0.2 0.2,-0.6 -0.1,-0.8 -4.3,-3.6 -8.9,-5.1 -15.6,-5.1 -4.3,0 -8.5,1.1 -11.6,2.9 -4,2.4 -6.1,6 -6.1,10.4 0,7.7 6.1,12.4 17.3,13.2 6.3,0.4 7.1,2.2 7.1,3.8 0,2.3 -3.1,3.5 -6.1,3.5 h -0.3 C 409.7,77.9 405,76.1 401.9,73.2 401.6,73 401.2,73 401,73.3 Z M 291.2,73.4 c 1.7,-2 2.5,-4.8 2.5,-7.8 0,-5.4 -3.3,-11.1 -11.3,-11.1 -6.6,0 -11,4.5 -11,11.2 0,6.7 4.4,11.3 11,11.3 3.4,0 6.8,-1.3 8.8,-3.6 m 2.2,-28 c 0,-0.3 0.3,-0.6 0.6,-0.6 h 10.3 c 0.3,0 0.6,0.3 0.6,0.6 v 42.1 c 0,0.3 -0.3,0.6 -0.6,0.6 H 294 c -0.3,0 -0.6,-0.3 -0.6,-0.6 v -3.2 c -3.6,3.3 -7.9,3.4 -11.6,3.5 h -0.6 c -6.2,0 -11.4,-1.9 -15.2,-5.6 -4,-3.9 -6,-9.6 -6,-16.4 0,-13.2 8.4,-21.7 21.5,-21.7 h 0.2 c 4.1,0 8.4,0.4 11.8,3.2 z M 165.3,34.4 V 24.3 c 0,-0.4 -0.3,-0.7 -0.7,-0.7 h -37.5 c -0.4,0 -0.7,0.3 -0.7,0.7 v 63 c 0,0.4 0.3,0.7 0.7,0.7 h 10.1 c 0.4,0 0.7,-0.3 0.7,-0.7 V 61.6 c 0,-0.4 0.3,-0.7 0.7,-0.7 h 18.9 c 0.4,0 0.7,-0.3 0.7,-0.7 V 50 c 0,-0.4 -0.3,-0.7 -0.7,-0.7 h -18.9 c -0.4,0 -0.7,-0.3 -0.7,-0.7 V 35.9 c 0,-0.4 0.3,-0.7 0.7,-0.7 h 25.9 c 0.5,0 0.8,-0.4 0.8,-0.8 m 220.5,40.2 c -0.2,-0.2 -0.6,-0.2 -0.8,0 -2,1.7 -4.6,2.6 -7.1,2.6 -6.3,0 -10.7,-4.5 -10.7,-11 0,-6.5 4.4,-11 10.7,-11 2.5,0 5,0.9 7.1,2.6 0.2,0.2 0.6,0.2 0.8,0 l 6.7,-7 c 0.2,-0.2 0.2,-0.6 0,-0.8 -4.3,-4.1 -8.7,-5.8 -14.7,-5.8 -13.5,0 -22.2,8.7 -22.2,22.2 0,13.5 8.7,22.2 22.2,22.2 6,0 10.4,-1.7 14.7,-5.8 0.2,-0.2 0.2,-0.6 0,-0.8 z M 332,88.1 c 0.3,0 0.6,-0.3 0.6,-0.6 v -9.4 c 0,-0.3 -0.3,-0.6 -0.6,-0.6 -1.1,0 -4.4,0 -5.1,0 -3,-0.1 -4.4,-1.6 -4.4,-4.8 V 56.6 h 9.5 c 0.3,0 0.6,-0.3 0.6,-0.6 V 45.5 c 0,-0.3 -0.3,-0.6 -0.6,-0.6 h -9.4 v -9.1 c 0,-0.3 -0.3,-0.6 -0.6,-0.6 h -10.4 c -0.3,0 -0.6,0.3 -0.6,0.6 v 36.9 c 0,9.8 5.5,15.4 15.2,15.4 h 1.9 z M 193.8,73.4 c 1.7,-2 2.5,-4.8 2.5,-7.8 0,-5.4 -3.3,-11.1 -11.3,-11.1 -6.6,0 -11,4.5 -11,11.2 0,6.7 4.4,11.3 11,11.3 3.5,0 6.9,-1.3 8.8,-3.6 m 2.3,-28 c 0,-0.3 0.3,-0.6 0.6,-0.6 H 207 c 0.3,0 0.6,0.3 0.6,0.6 v 42.1 c 0,0.3 -0.3,0.6 -0.6,0.6 h -10.3 c -0.3,0 -0.6,-0.3 -0.6,-0.6 v -3.2 c -3.6,3.3 -7.9,3.4 -11.6,3.5 h -0.6 c -6.2,0 -11.4,-1.9 -15.2,-5.6 -4,-3.9 -6,-9.6 -6,-16.4 C 162.6,52.6 171,44 184,44 h 0.2 c 4.1,0 8.4,0.4 11.8,3.2 z m 142.7,42.7 h 10.4 c 0.3,0 0.6,-0.3 0.6,-0.6 V 45.4 c 0,-0.3 -0.3,-0.6 -0.6,-0.6 h -10.4 c -0.3,0 -0.6,0.3 -0.6,0.6 v 42.1 c 0.1,0.3 0.3,0.6 0.6,0.6 m 11.8,-56 c 0,-8.5 -12.8,-8.5 -12.8,0 -0.1,8.4 12.8,8.4 12.8,0"
   class="st18"
   inkscape:connector-curvature="0"
   style="fill:#09203f" />

	<path
   id="path318"
   d="M 108.8,11.4 98,28.2 c -0.2,0.3 -0.7,0.5 -1,0.3 C 72.1,16 43.3,39 17.9,33.5 17.7,33.4 17.5,33.3 17.3,33.1 17.4,33.1 5.1,14.3 1,8 0.5,7.2 1.1,6.1 2.2,6.2 4.4,6.7 14,8.8 21.4,9.4 c 38.5,2.1 59.4,-21 87.3,0.9 0.3,0.2 0.4,0.7 0.1,1.1 z M 2,6.2 M 0.8,8 M 2,6.2 m 75.4,53.3 c 0.2,0.1 0.4,0 0.6,-0.2 L 91,39 c 0.2,-0.3 0,-0.6 -0.3,-0.7 -18.9,-6.5 -36.6,6 -63.6,6.7 -0.7,0 -1.4,0.8 -0.9,1.7 l 29.1,45 c 0.4,0.8 1.4,0.3 1.3,-0.4 L 50.3,62.8 c -0.1,-0.3 0.1,-0.5 0.3,-0.6 2.5,-0.7 19,-6.3 26.8,-2.7 z"
   class="st23"
   inkscape:connector-curvature="0"
   style="fill:#e53d2e" />

	<g
   id="g322">
		<path
   id="path320"
   d="m 440,40.3 c 0,2.1 -1.3,3.8 -3.7,3.8 -2.4,0 -3.7,-1.7 -3.7,-3.8 0,-2.1 1.3,-3.8 3.7,-3.8 2.4,0 3.7,1.7 3.7,3.8 z m -3.7,3.2 c 2,0 3.1,-1.4 3.1,-3.2 0,-1.8 -1.1,-3.2 -3.1,-3.2 -2,0 -3.1,1.4 -3.1,3.2 0,1.8 1.1,3.2 3.1,3.2 z m 0.6,-2.7 c 1.5,-0.2 1.4,-2.5 -0.3,-2.5 -0.6,0 -1.2,0 -1.8,0 v 3.9 h 0.6 v -1.4 h 0.8 l 1.2,1.4 h 0.7 v -0.1 z m -0.3,-1.9 c 1,0 1,1.4 0,1.4 h -1.2 v -1.4 z"
   class="st18"
   inkscape:connector-curvature="0"
   style="fill:#09203f" />

	</g>

</g>
    </g>
  </g>
  <style
     id="style10"
     type="text/css">
	.st0{fill:#FFFFFF;}
	.st1{fill:#003B75;}
	.st2{fill:#FFFFFF;enable-background:new    ;}
	.st3{fill:#DA2128;}
	.st4{fill:none;stroke:#09203F;}
	.st5{fill:#CA2027;}
	.st6{fill:#2A2B79;}
	.st7{fill:#066CB4;}
	.st8{fill:#EA1D4D;}
	.st9{fill:#CFD2D3;}
	.st10{fill:url(#SVGID_1_);}
	.st11{fill:url(#SVGID_2_);}
	.st12{fill:url(#SVGID_3_);}
	.st13{fill:url(#SVGID_4_);}
	.st14{fill:url(#SVGID_5_);}
	.st15{fill:url(#SVGID_6_);}
	.st16{fill:url(#SVGID_7_);}
	.st17{fill:url(#SVGID_8_);}
	.st18{fill:#09203F;}
	.st19{fill:#333333;}
	.st20{fill:#005CB9;}
	.st21{fill:#EA0029;}
	.st22{fill:#F5CE3E;}
	.st23{fill:#E53D2E;}
</style>
</svg>
